{
  "project_info": {
    "project_number": "496475893651",
    "firebase_url": "https://crud-c12c0.firebaseio.com",
    "project_id": "crud-c12c0",
    "storage_bucket": "crud-c12c0.appspot.com"
  },
  "client": [
    {
      "client_info": {
        "mobilesdk_app_id": "1:496475893651:android:c2a9c59e5a6de489",
        "android_client_info": {
          "package_name": "com.example.conexion"
        }
      },
      "oauth_client": [
        {
          "client_id": "496475893651-46mqfolgi6kmr8cq2j8o4dcup375okg3.apps.googleusercontent.com",
          "client_type": 3
        }
      ],
      "api_key": [
        {
          "current_key": "AIzaSyCxAf5thVZexx3N9Z0KrnYGSimKA1Kc1dg"
        }
      ],
      "services": {
        "appinvite_service": {
          "other_platform_oauth_client": [
            {
              "client_id": "496475893651-46mqfolgi6kmr8cq2j8o4dcup375okg3.apps.googleusercontent.com",
              "client_type": 3
            }
          ]
        }
      }
    }
  ],
  "configuration_version": "1"
}